PWD c:/Users/kmliu_tcj2pqr/Documents/Developing Projects/trader/research/Google+School
INPUT d:/Program Files/texlive/2018/texmf.cnf
INPUT d:/Program Files/texlive/2018/texmf-dist/web2c/texmf.cnf
INPUT d:/Program Files/texlive/2018/texmf-var/web2c/pdftex/pdflatex.fmt
INPUT c:/Users/kmliu_tcj2pqr/Documents/Developing Projects/trader/research/Google+School/TraderCentre_WhitePaper.tex
