PWD c:/Users/kmliu_tcj2pqr/Documents/Developing Projects/trader/research/Google+School
INPUT d:/Program Files/texlive/2018/texmf.cnf
INPUT d:/Program Files/texlive/2018/texmf-dist/web2c/texmf.cnf
INPUT d:/Program Files/texlive/2018/texmf-var/web2c/pdftex/pdflatex.fmt
INPUT c:/Users/kmliu_tcj2pqr/Documents/Developing Projects/trader/research/Google+School/TraderCentre_WhitePaper.tex
OUTPUT TraderCentre_WhitePaper.log
INPUT d:/Program Files/texlive/2018/texmf-dist/tex/latex/base/article.cls
INPUT d:/Program Files/texlive/2018/texmf-dist/tex/latex/base/article.cls
INPUT d:/Program Files/texlive/2018/texmf-dist/tex/latex/base/size10.clo
INPUT d:/Program Files/texlive/2018/texmf-dist/tex/latex/base/size10.clo
INPUT d:/Program Files/texlive/2018/texmf-dist/tex/latex/tabu/tabu.sty
INPUT d:/Program Files/texlive/2018/texmf-dist/tex/latex/tabu/tabu.sty
INPUT d:/Program Files/texlive/2018/texmf-dist/tex/latex/tools/array.sty
INPUT d:/Program Files/texlive/2018/texmf-dist/tex/latex/tools/array.sty
INPUT d:/Program Files/texlive/2018/texmf-dist/tex/latex/varwidth/varwidth.sty
INPUT d:/Program Files/texlive/2018/texmf-dist/tex/latex/varwidth/varwidth.sty
INPUT d:/Program Files/texlive/2018/texmf-dist/tex/latex/psnfss/helvet.sty
INPUT d:/Program Files/texlive/2018/texmf-dist/tex/latex/psnfss/helvet.sty
INPUT d:/Program Files/texlive/2018/texmf-dist/tex/latex/graphics/keyval.sty
INPUT d:/Program Files/texlive/2018/texmf-dist/tex/latex/graphics/keyval.sty
INPUT d:/Program Files/texlive/2018/texmf-dist/tex/latex/amsmath/amsmath.sty
INPUT d:/Program Files/texlive/2018/texmf-dist/tex/latex/amsmath/amsmath.sty
INPUT d:/Program Files/texlive/2018/texmf-dist/tex/latex/amsmath/amstext.sty
INPUT d:/Program Files/texlive/2018/texmf-dist/tex/latex/amsmath/amstext.sty
INPUT d:/Program Files/texlive/2018/texmf-dist/tex/latex/amsmath/amsgen.sty
INPUT d:/Program Files/texlive/2018/texmf-dist/tex/latex/amsmath/amsgen.sty
INPUT d:/Program Files/texlive/2018/texmf-dist/tex/latex/amsmath/amsbsy.sty
INPUT d:/Program Files/texlive/2018/texmf-dist/tex/latex/amsmath/amsbsy.sty
INPUT d:/Program Files/texlive/2018/texmf-dist/tex/latex/amsmath/amsopn.sty
INPUT d:/Program Files/texlive/2018/texmf-dist/tex/latex/amsmath/amsopn.sty
INPUT d:/Program Files/texlive/2018/texmf-dist/tex/latex/tools/multicol.sty
INPUT d:/Program Files/texlive/2018/texmf-dist/tex/latex/tools/multicol.sty
INPUT d:/Program Files/texlive/2018/texmf-dist/tex/latex/geometry/geometry.sty
INPUT d:/Program Files/texlive/2018/texmf-dist/tex/latex/geometry/geometry.sty
INPUT d:/Program Files/texlive/2018/texmf-dist/tex/generic/oberdiek/ifpdf.sty
INPUT d:/Program Files/texlive/2018/texmf-dist/tex/generic/oberdiek/ifpdf.sty
INPUT d:/Program Files/texlive/2018/texmf-dist/tex/generic/oberdiek/ifvtex.sty
INPUT d:/Program Files/texlive/2018/texmf-dist/tex/generic/oberdiek/ifvtex.sty
INPUT d:/Program Files/texlive/2018/texmf-dist/tex/generic/ifxetex/ifxetex.sty
INPUT d:/Program Files/texlive/2018/texmf-dist/tex/generic/ifxetex/ifxetex.sty
INPUT d:/Program Files/texlive/2018/texmf-dist/tex/latex/biblatex/biblatex.sty
INPUT d:/Program Files/texlive/2018/texmf-dist/tex/latex/biblatex/biblatex.sty
INPUT d:/Program Files/texlive/2018/texmf-dist/tex/generic/oberdiek/pdftexcmds.sty
INPUT d:/Program Files/texlive/2018/texmf-dist/tex/generic/oberdiek/pdftexcmds.sty
INPUT d:/Program Files/texlive/2018/texmf-dist/tex/generic/oberdiek/infwarerr.sty
INPUT d:/Program Files/texlive/2018/texmf-dist/tex/generic/oberdiek/infwarerr.sty
INPUT d:/Program Files/texlive/2018/texmf-dist/tex/generic/oberdiek/ifluatex.sty
INPUT d:/Program Files/texlive/2018/texmf-dist/tex/generic/oberdiek/ifluatex.sty
INPUT d:/Program Files/texlive/2018/texmf-dist/tex/generic/oberdiek/ltxcmds.sty
INPUT d:/Program Files/texlive/2018/texmf-dist/tex/generic/oberdiek/ltxcmds.sty
INPUT d:/Program Files/texlive/2018/texmf-dist/tex/latex/etoolbox/etoolbox.sty
INPUT d:/Program Files/texlive/2018/texmf-dist/tex/latex/etoolbox/etoolbox.sty
INPUT d:/Program Files/texlive/2018/texmf-dist/tex/latex/oberdiek/kvoptions.sty
INPUT d:/Program Files/texlive/2018/texmf-dist/tex/latex/oberdiek/kvoptions.sty
INPUT d:/Program Files/texlive/2018/texmf-dist/tex/generic/oberdiek/kvsetkeys.sty
INPUT d:/Program Files/texlive/2018/texmf-dist/tex/generic/oberdiek/kvsetkeys.sty
INPUT d:/Program Files/texlive/2018/texmf-dist/tex/generic/oberdiek/etexcmds.sty
INPUT d:/Program Files/texlive/2018/texmf-dist/tex/generic/oberdiek/etexcmds.sty
INPUT d:/Program Files/texlive/2018/texmf-dist/tex/latex/logreq/logreq.sty
INPUT d:/Program Files/texlive/2018/texmf-dist/tex/latex/logreq/logreq.sty
INPUT d:/Program Files/texlive/2018/texmf-dist/tex/latex/logreq/logreq.def
INPUT d:/Program Files/texlive/2018/texmf-dist/tex/latex/logreq/logreq.def
INPUT d:/Program Files/texlive/2018/texmf-dist/tex/latex/base/ifthen.sty
INPUT d:/Program Files/texlive/2018/texmf-dist/tex/latex/base/ifthen.sty
INPUT d:/Program Files/texlive/2018/texmf-dist/tex/latex/url/url.sty
INPUT d:/Program Files/texlive/2018/texmf-dist/tex/latex/url/url.sty
INPUT d:/Program Files/texlive/2018/texmf-dist/tex/generic/xstring/xstring.sty
INPUT d:/Program Files/texlive/2018/texmf-dist/tex/generic/xstring/xstring.sty
INPUT d:/Program Files/texlive/2018/texmf-dist/tex/generic/xstring/xstring.tex
INPUT d:/Program Files/texlive/2018/texmf-dist/tex/latex/biblatex/blx-dm.def
INPUT d:/Program Files/texlive/2018/texmf-dist/tex/latex/biblatex/blx-dm.def
INPUT d:/Program Files/texlive/2018/texmf-dist/tex/latex/biblatex/blx-compat.def
INPUT d:/Program Files/texlive/2018/texmf-dist/tex/latex/biblatex/blx-compat.def
INPUT d:/Program Files/texlive/2018/texmf-dist/tex/latex/biblatex/biblatex.def
INPUT d:/Program Files/texlive/2018/texmf-dist/tex/latex/biblatex/biblatex.def
INPUT d:/Program Files/texlive/2018/texmf-dist/tex/latex/biblatex-mla/mla.bbx
INPUT d:/Program Files/texlive/2018/texmf-dist/tex/latex/biblatex-mla/mla.bbx
INPUT d:/Program Files/texlive/2018/texmf-dist/tex/latex/biblatex/bbx/standard.bbx
INPUT d:/Program Files/texlive/2018/texmf-dist/tex/latex/biblatex/bbx/standard.bbx
INPUT d:/Program Files/texlive/2018/texmf-dist/tex/latex/biblatex-mla/mla.cbx
INPUT d:/Program Files/texlive/2018/texmf-dist/tex/latex/biblatex-mla/mla.cbx
INPUT d:/Program Files/texlive/2018/texmf-dist/tex/latex/biblatex/biblatex.cfg
INPUT d:/Program Files/texlive/2018/texmf-dist/tex/latex/biblatex/biblatex.cfg
INPUT d:/Program Files/texlive/2018/texmf-dist/tex/latex/biblatex-mla/english-mla.lbx
INPUT d:/Program Files/texlive/2018/texmf-dist/tex/latex/biblatex-mla/english-mla.lbx
INPUT d:/Program Files/texlive/2018/texmf-dist/tex/latex/biblatex-mla/english-mla.lbx
INPUT d:/Program Files/texlive/2018/texmf-dist/tex/latex/biblatex/lbx/english.lbx
INPUT d:/Program Files/texlive/2018/texmf-dist/tex/latex/biblatex/lbx/english.lbx
INPUT d:/Program Files/texlive/2018/texmf-dist/tex/latex/biblatex/lbx/english.lbx
INPUT d:/Program Files/texlive/2018/texmf-dist/tex/latex/biblatex/lbx/english.lbx
INPUT TraderCentre_WhitePaper.aux
INPUT TraderCentre_WhitePaper.aux
OUTPUT TraderCentre_WhitePaper.aux
INPUT d:/Program Files/texlive/2018/texmf-dist/tex/latex/psnfss/ot1phv.fd
INPUT d:/Program Files/texlive/2018/texmf-dist/tex/latex/psnfss/ot1phv.fd
INPUT d:/Program Files/texlive/2018/texmf-dist/fonts/map/fontname/texfonts.map
INPUT d:/Program Files/texlive/2018/texmf-dist/fonts/tfm/adobe/helvetic/phvr7t.tfm
OUTPUT TraderCentre_WhitePaper.bcf
INPUT TraderCentre_WhitePaper.bbl
INPUT TraderCentre_WhitePaper.bbl
INPUT TraderCentre_WhitePaper.bbl
INPUT d:/Program Files/texlive/2018/texmf-dist/fonts/tfm/adobe/helvetic/phvr7t.tfm
INPUT d:/Program Files/texlive/2018/texmf-dist/fonts/tfm/adobe/helvetic/phvr7t.tfm
INPUT d:/Program Files/texlive/2018/texmf-dist/fonts/tfm/public/cm/cmr12.tfm
INPUT d:/Program Files/texlive/2018/texmf-dist/fonts/tfm/public/cm/cmr8.tfm
INPUT d:/Program Files/texlive/2018/texmf-dist/fonts/tfm/public/cm/cmr6.tfm
INPUT d:/Program Files/texlive/2018/texmf-dist/fonts/tfm/public/cm/cmmi12.tfm
INPUT d:/Program Files/texlive/2018/texmf-dist/fonts/tfm/public/cm/cmmi8.tfm
INPUT d:/Program Files/texlive/2018/texmf-dist/fonts/tfm/public/cm/cmmi6.tfm
INPUT d:/Program Files/texlive/2018/texmf-dist/fonts/tfm/public/cm/cmsy10.tfm
INPUT d:/Program Files/texlive/2018/texmf-dist/fonts/tfm/public/cm/cmsy8.tfm
INPUT d:/Program Files/texlive/2018/texmf-dist/fonts/tfm/public/cm/cmsy6.tfm
INPUT d:/Program Files/texlive/2018/texmf-dist/fonts/tfm/public/cm/cmex10.tfm
INPUT d:/Program Files/texlive/2018/texmf-dist/fonts/tfm/public/amsfonts/cmextra/cmex8.tfm
INPUT d:/Program Files/texlive/2018/texmf-dist/fonts/tfm/public/amsfonts/cmextra/cmex7.tfm
INPUT d:/Program Files/texlive/2018/texmf-dist/fonts/tfm/adobe/helvetic/phvr7t.tfm
INPUT d:/Program Files/texlive/2018/texmf-dist/fonts/tfm/adobe/helvetic/phvb7t.tfm
INPUT d:/Program Files/texlive/2018/texmf-dist/fonts/tfm/adobe/helvetic/phvb7t.tfm
OUTPUT TraderCentre_WhitePaper.pdf
INPUT d:/Program Files/texlive/2018/texmf-dist/fonts/vf/adobe/helvetic/phvr7t.vf
INPUT d:/Program Files/texlive/2018/texmf-dist/fonts/tfm/adobe/helvetic/phvr8r.tfm
INPUT d:/Program Files/texlive/2018/texmf-var/fonts/map/pdftex/updmap/pdftex.map
INPUT d:/Program Files/texlive/2018/texmf-dist/fonts/vf/adobe/helvetic/phvr7t.vf
INPUT d:/Program Files/texlive/2018/texmf-dist/fonts/tfm/adobe/helvetic/phvr8r.tfm
INPUT d:/Program Files/texlive/2018/texmf-dist/fonts/vf/adobe/helvetic/phvb7t.vf
INPUT d:/Program Files/texlive/2018/texmf-dist/fonts/tfm/adobe/helvetic/phvb8r.tfm
INPUT d:/Program Files/texlive/2018/texmf-dist/fonts/vf/adobe/helvetic/phvr7t.vf
INPUT d:/Program Files/texlive/2018/texmf-dist/fonts/tfm/adobe/helvetic/phvr8r.tfm
INPUT d:/Program Files/texlive/2018/texmf-dist/fonts/vf/adobe/helvetic/phvb7t.vf
INPUT d:/Program Files/texlive/2018/texmf-dist/fonts/tfm/adobe/helvetic/phvb8r.tfm
INPUT d:/Program Files/texlive/2018/texmf-dist/fonts/tfm/public/amsfonts/cmextra/cmex7.tfm
INPUT d:/Program Files/texlive/2018/texmf-dist/fonts/tfm/public/amsfonts/cmextra/cmex7.tfm
INPUT d:/Program Files/texlive/2018/texmf-dist/tex/latex/psnfss/omsphv.fd
INPUT d:/Program Files/texlive/2018/texmf-dist/tex/latex/psnfss/omsphv.fd
INPUT d:/Program Files/texlive/2018/texmf-dist/fonts/tfm/adobe/helvetic/phvb7t.tfm
INPUT d:/Program Files/texlive/2018/texmf-dist/fonts/tfm/adobe/helvetic/phvro7t.tfm
INPUT d:/Program Files/texlive/2018/texmf-dist/fonts/vf/adobe/helvetic/phvb7t.vf
INPUT d:/Program Files/texlive/2018/texmf-dist/fonts/tfm/adobe/helvetic/phvb8r.tfm
INPUT d:/Program Files/texlive/2018/texmf-dist/fonts/vf/adobe/helvetic/phvro7t.vf
INPUT d:/Program Files/texlive/2018/texmf-dist/fonts/tfm/adobe/helvetic/phvro8r.tfm
INPUT TraderCentre_WhitePaper.aux
INPUT TraderCentre_WhitePaper.run.xml
OUTPUT TraderCentre_WhitePaper.run.xml
INPUT d:/Program Files/texlive/2018/texmf-dist/fonts/enc/dvips/base/8r.enc
INPUT d:/Program Files/texlive/2018/texmf-dist/fonts/type1/public/amsfonts/cm/cmex10.pfb
INPUT d:/Program Files/texlive/2018/texmf-dist/fonts/type1/public/amsfonts/cm/cmmi10.pfb
INPUT d:/Program Files/texlive/2018/texmf-dist/fonts/type1/public/amsfonts/cm/cmmi7.pfb
INPUT d:/Program Files/texlive/2018/texmf-dist/fonts/type1/public/amsfonts/cm/cmr10.pfb
INPUT d:/Program Files/texlive/2018/texmf-dist/fonts/type1/public/amsfonts/cm/cmr7.pfb
INPUT d:/Program Files/texlive/2018/texmf-dist/fonts/type1/public/amsfonts/cm/cmsy10.pfb
INPUT d:/Program Files/texlive/2018/texmf-dist/fonts/type1/public/amsfonts/cm/cmsy5.pfb
INPUT d:/Program Files/texlive/2018/texmf-dist/fonts/type1/public/amsfonts/cm/cmsy7.pfb
INPUT d:/Program Files/texlive/2018/texmf-dist/fonts/type1/urw/helvetic/uhvb8a.pfb
INPUT d:/Program Files/texlive/2018/texmf-dist/fonts/type1/urw/helvetic/uhvr8a.pfb
INPUT d:/Program Files/texlive/2018/texmf-dist/fonts/type1/urw/helvetic/uhvro8a.pfb
