% $ biblatex auxiliary file $
% $ biblatex bbl format version 2.9 $
% Do not modify the above lines!
%
% This is an auxiliary file used by the 'biblatex' package.
% This file may safely be deleted. It will be recreated by
% biber as required.
%
\begingroup
\makeatletter
\@ifundefined{ver@biblatex.sty}
  {\@latex@error
     {Missing 'biblatex' package}
     {The bibliography requires the 'biblatex' package.}
      \aftergroup\endinput}
  {}
\endgroup


\refsection{0}
  \datalist[entry]{nty/global//global/global}
    \entry{akbacs2016deepql}{article}{}
      \name{author}{1}{}{%
        {{uniquename=0,uniquepart=base,hash=4282e5c56a71ecdff11bb2648eeb2fcc}{%
           family={Akba{ş}},
           familyi={A\bibinitperiod},
           given={Emre},
           giveni={E\bibinitperiod},
           givenun=0}}%
      }
      \strng{namehash}{4282e5c56a71ecdff11bb2648eeb2fcc}
      \strng{fullhash}{4282e5c56a71ecdff11bb2648eeb2fcc}
      \strng{bibnamehash}{4282e5c56a71ecdff11bb2648eeb2fcc}
      \strng{authorbibnamehash}{4282e5c56a71ecdff11bb2648eeb2fcc}
      \strng{authornamehash}{4282e5c56a71ecdff11bb2648eeb2fcc}
      \strng{authorfullhash}{4282e5c56a71ecdff11bb2648eeb2fcc}
      \field{sortinit}{A}
      \field{sortinithash}{d77c7cdd82ff690d4c3ef13216f92f0b}
      \true{singletitle}
      \field{labelnamesource}{author}
      \field{labeltitlesource}{title}
      \field{title}{Deep Reinforcement Learning}
      \field{year}{2016}
    \endentry
    \entry{mcnally2018predicting}{inproceedings}{}
      \name{author}{3}{}{%
        {{uniquename=0,uniquepart=base,hash=86648d1553b319359762514a946f3fd0}{%
           family={McNally},
           familyi={M\bibinitperiod},
           given={Sean},
           giveni={S\bibinitperiod},
           givenun=0}}%
        {{uniquename=0,uniquepart=base,hash=fbe04a4717365d489103004a0fbad877}{%
           family={Roche},
           familyi={R\bibinitperiod},
           given={Jason},
           giveni={J\bibinitperiod},
           givenun=0}}%
        {{uniquename=0,uniquepart=base,hash=1e2b4a1204b7e8f7c7d379a22d93c699}{%
           family={Caton},
           familyi={C\bibinitperiod},
           given={Simon},
           giveni={S\bibinitperiod},
           givenun=0}}%
      }
      \list{organization}{1}{%
        {IEEE}%
      }
      \strng{namehash}{11831e895464594cf24486c507f5ea7c}
      \strng{fullhash}{11831e895464594cf24486c507f5ea7c}
      \strng{bibnamehash}{11831e895464594cf24486c507f5ea7c}
      \strng{authorbibnamehash}{11831e895464594cf24486c507f5ea7c}
      \strng{authornamehash}{11831e895464594cf24486c507f5ea7c}
      \strng{authorfullhash}{11831e895464594cf24486c507f5ea7c}
      \field{sortinit}{M}
      \field{sortinithash}{cfd219b90152c06204fab207bc6c7cab}
      \true{singletitle}
      \field{labelnamesource}{author}
      \field{labeltitlesource}{title}
      \field{booktitle}{Parallel, Distributed and Network-based Processing (PDP), 2018 26th Euromicro International Conference on}
      \field{title}{Predicting the price of Bitcoin using Machine Learning}
      \field{year}{2018}
      \field{pages}{339\bibrangedash 343}
      \range{pages}{5}
    \endentry
    \entry{mnih2013deeprl}{article}{}
      \name{author}{7}{}{%
        {{uniquename=0,uniquepart=base,hash=f7d23cfe4ca0e6bf7a8c251bfa78aca6}{%
           family={Mnih},
           familyi={M\bibinitperiod},
           given={Volodymyr},
           giveni={V\bibinitperiod},
           givenun=0}}%
        {{uniquename=0,uniquepart=base,hash=481308b301166b521c74fde6566e97e6}{%
           family={Kavukcuoglu},
           familyi={K\bibinitperiod},
           given={Koray},
           giveni={K\bibinitperiod},
           givenun=0}}%
        {{uniquename=0,uniquepart=base,hash=89dbd30410c2085cd059f32c57d4593e}{%
           family={Silver},
           familyi={S\bibinitperiod},
           given={David},
           giveni={D\bibinitperiod},
           givenun=0}}%
        {{uniquename=0,uniquepart=base,hash=dfca94b0427da7f9088af596e23b46c0}{%
           family={Graves},
           familyi={G\bibinitperiod},
           given={Alex},
           giveni={A\bibinitperiod},
           givenun=0}}%
        {{uniquename=0,uniquepart=base,hash=af540e84ef1ecdaa70b1f7c90f59fd7d}{%
           family={Antonoglou},
           familyi={A\bibinitperiod},
           given={Ioannis},
           giveni={I\bibinitperiod},
           givenun=0}}%
        {{uniquename=0,uniquepart=base,hash=d7805381550fb5f8360345f7f72c0b49}{%
           family={Wierstra},
           familyi={W\bibinitperiod},
           given={Daan},
           giveni={D\bibinitperiod},
           givenun=0}}%
        {{uniquename=0,uniquepart=base,hash=9449802bcb467309c0ebced658096818}{%
           family={Riedmiller},
           familyi={R\bibinitperiod},
           given={Martin},
           giveni={M\bibinitperiod},
           givenun=0}}%
      }
      \strng{namehash}{aff24b211b34cdd515b2fd148ce0c920}
      \strng{fullhash}{2860d669102abb5e113bf4232d6d5997}
      \strng{bibnamehash}{aff24b211b34cdd515b2fd148ce0c920}
      \strng{authorbibnamehash}{aff24b211b34cdd515b2fd148ce0c920}
      \strng{authornamehash}{aff24b211b34cdd515b2fd148ce0c920}
      \strng{authorfullhash}{2860d669102abb5e113bf4232d6d5997}
      \field{sortinit}{M}
      \field{sortinithash}{cfd219b90152c06204fab207bc6c7cab}
      \true{singletitle}
      \field{labelnamesource}{author}
      \field{labeltitlesource}{title}
      \field{journaltitle}{arXiv preprint arXiv:1312.5602}
      \field{title}{Playing atari with deep reinforcement learning}
      \field{year}{2013}
    \endentry
    \entry{poloniex}{online}{}
      \name{author}{1}{}{%
        {{uniquename=0,uniquepart=base,hash=d2ee66388fb0bb637de8dd2aff2b1173}{%
           family={Poloniex},
           familyi={P\bibinitperiod},
           given={LLC},
           giveni={L\bibinitperiod},
           givenun=0}}%
      }
      \strng{namehash}{d2ee66388fb0bb637de8dd2aff2b1173}
      \strng{fullhash}{d2ee66388fb0bb637de8dd2aff2b1173}
      \strng{bibnamehash}{d2ee66388fb0bb637de8dd2aff2b1173}
      \strng{authorbibnamehash}{d2ee66388fb0bb637de8dd2aff2b1173}
      \strng{authornamehash}{d2ee66388fb0bb637de8dd2aff2b1173}
      \strng{authorfullhash}{d2ee66388fb0bb637de8dd2aff2b1173}
      \field{sortinit}{P}
      \field{sortinithash}{8d51b3d5b78d75b54308d706b9bbe285}
      \true{singletitle}
      \field{labelnamesource}{author}
      \field{labeltitlesource}{title}
      \field{title}{The Poloniex Exchange}
      \field{urlday}{24}
      \field{urlmonth}{11}
      \field{urlyear}{2018}
      \field{year}{2014}
      \field{urldateera}{ce}
      \verb{urlraw}
      \verb https://poloniex.com/
      \endverb
      \verb{url}
      \verb https://poloniex.com/
      \endverb
    \endentry
    \entry{sutton2018reinforcement}{book}{}
      \name{author}{2}{}{%
        {{uniquename=0,uniquepart=base,hash=2b25ab354ac9b3006192cd52bd9af626}{%
           family={Sutton},
           familyi={S\bibinitperiod},
           given={Richard\bibnamedelima S},
           giveni={R\bibinitperiod\bibinitdelim S\bibinitperiod},
           givenun=0}}%
        {{uniquename=0,uniquepart=base,hash=4f104417cfd96b2a360b62d8cf110a96}{%
           family={Barto},
           familyi={B\bibinitperiod},
           given={Andrew\bibnamedelima G},
           giveni={A\bibinitperiod\bibinitdelim G\bibinitperiod},
           givenun=0}}%
      }
      \list{publisher}{1}{%
        {MIT press}%
      }
      \strng{namehash}{9767c22ff969d07f27ccd9229b1671a5}
      \strng{fullhash}{9767c22ff969d07f27ccd9229b1671a5}
      \strng{bibnamehash}{9767c22ff969d07f27ccd9229b1671a5}
      \strng{authorbibnamehash}{9767c22ff969d07f27ccd9229b1671a5}
      \strng{authornamehash}{9767c22ff969d07f27ccd9229b1671a5}
      \strng{authorfullhash}{9767c22ff969d07f27ccd9229b1671a5}
      \field{sortinit}{S}
      \field{sortinithash}{322b1d5276f2f6c1bccdcd15920dbee6}
      \true{singletitle}
      \field{labelnamesource}{author}
      \field{labeltitlesource}{title}
      \field{title}{Reinforcement learning: An introduction}
      \field{year}{2018}
    \endentry
    \entry{watkins1992qlearning}{article}{}
      \name{author}{2}{}{%
        {{uniquename=0,uniquepart=base,hash=a8bcc465ed29c7972b33ebaefe1b75d1}{%
           family={Watkins},
           familyi={W\bibinitperiod},
           given={Christopher\bibnamedelima JCH},
           giveni={C\bibinitperiod\bibinitdelim J\bibinitperiod},
           givenun=0}}%
        {{uniquename=0,uniquepart=base,hash=ef0afbe0b4e15059c963e026fe213c34}{%
           family={Dayan},
           familyi={D\bibinitperiod},
           given={Peter},
           giveni={P\bibinitperiod},
           givenun=0}}%
      }
      \list{publisher}{1}{%
        {Springer}%
      }
      \strng{namehash}{21b8b7efba0708d73342ea822a69b9a2}
      \strng{fullhash}{21b8b7efba0708d73342ea822a69b9a2}
      \strng{bibnamehash}{21b8b7efba0708d73342ea822a69b9a2}
      \strng{authorbibnamehash}{21b8b7efba0708d73342ea822a69b9a2}
      \strng{authornamehash}{21b8b7efba0708d73342ea822a69b9a2}
      \strng{authorfullhash}{21b8b7efba0708d73342ea822a69b9a2}
      \field{sortinit}{W}
      \field{sortinithash}{ecb89ff85896a47dc313960773ac311d}
      \true{singletitle}
      \field{labelnamesource}{author}
      \field{labeltitlesource}{title}
      \field{journaltitle}{Machine learning}
      \field{number}{3-4}
      \field{title}{Q-learning}
      \field{volume}{8}
      \field{year}{1992}
      \field{pages}{279\bibrangedash 292}
      \range{pages}{14}
    \endentry
  \enddatalist
\endrefsection
\endinput

